%YAML 1.1
%TAG !u! tag:unity3d.com,2011:
--- !u!1 &4523719455169754246
GameObject:
  m_ObjectHideFlags: 0
  m_CorrespondingSourceObject: {fileID: 0}
  m_PrefabInstance: {fileID: 0}
  m_PrefabAsset: {fileID: 0}
  serializedVersion: 6
  m_Component:
  - component: {fileID: 8916097562001470699}
  - component: {fileID: 4091407884077257937}
  - component: {fileID: 51500289985425004}
  - component: {fileID: 3343064193538536682}
  - component: {fileID: 4794427525141915165}
  m_Layer: 0
  m_Name: barrel
  m_TagString: Untagged
  m_Icon: {fileID: 0}
  m_NavMeshLayer: 0
  m_StaticEditorFlags: 0
  m_IsActive: 1
--- !u!4 &8916097562001470699
Transform:
  m_ObjectHideFlags: 0
  m_CorrespondingSourceObject: {fileID: 0}
  m_PrefabInstance: {fileID: 0}
  m_PrefabAsset: {fileID: 0}
  m_GameObject: {fileID: 4523719455169754246}
  m_LocalRotation: {x: 0, y: 0, z: 0, w: 1}
  m_LocalPosition: {x: -19.69, y: 0.28, z: -2.77}
  m_LocalScale: {x: 1, y: 1, z: 1}
  m_Children: []
  m_Father: {fileID: 0}
  m_RootOrder: 0
  m_LocalEulerAnglesHint: {x: 0, y: 0, z: 0}
--- !u!33 &4091407884077257937
MeshFilter:
  m_ObjectHideFlags: 0
  m_CorrespondingSourceObject: {fileID: 0}
  m_PrefabInstance: {fileID: 0}
  m_PrefabAsset: {fileID: 0}
  m_GameObject: {fileID: 4523719455169754246}
  m_Mesh: {fileID: 0}
--- !u!23 &51500289985425004
MeshRenderer:
  m_ObjectHideFlags: 0
  m_CorrespondingSourceObject: {fileID: 0}
  m_PrefabInstance: {fileID: 0}
  m_PrefabAsset: {fileID: 0}
  m_GameObject: {fileID: 4523719455169754246}
  m_Enabled: 1
  m_CastShadows: 1
  m_ReceiveShadows: 1
  m_DynamicOccludee: 1
  m_MotionVectors: 1
  m_LightProbeUsage: 1
  m_ReflectionProbeUsage: 1
  m_RayTracingMode: 2
  m_RayTraceProcedural: 0
  m_RenderingLayerMask: 1
  m_RendererPriority: 0
  m_Materials:
  - {fileID: 2100000, guid: c22777d6e868e4f2fb421913386b154e, type: 2}
  m_StaticBatchInfo:
    firstSubMesh: 0
    subMeshCount: 0
  m_StaticBatchRoot: {fileID: 0}
  m_ProbeAnchor: {fileID: 0}
  m_LightProbeVolumeOverride: {fileID: 0}
  m_ScaleInLightmap: 1
  m_ReceiveGI: 1
  m_PreserveUVs: 0
  m_IgnoreNormalsForChartDetection: 0
  m_ImportantGI: 0
  m_StitchLightmapSeams: 1
  m_SelectedEditorRenderState: 2
  m_MinimumChartSize: 4
  m_AutoUVMaxDistance: 0.5
  m_AutoUVMaxAngle: 89
  m_LightmapParameters: {fileID: 0}
  m_SortingLayerID: 0
  m_SortingLayer: 0
  m_SortingOrder: 0
  m_AdditionalVertexStreams: {fileID: 0}
--- !u!114 &3343064193538536682
MonoBehaviour:
  m_ObjectHideFlags: 0
  m_CorrespondingSourceObject: {fileID: 0}
  m_PrefabInstance: {fileID: 0}
  m_PrefabAsset: {fileID: 0}
  m_GameObject: {fileID: 4523719455169754246}
  m_Enabled: 1
  m_EditorHideFlags: 0
  m_Script: {fileID: 11500000, guid: 8233d90336aea43098adf6dbabd606a2, type: 3}
  m_Name: 
  m_EditorClassIdentifier: 
  m_MeshFormatVersion: 1
  m_Faces:
  - m_Indexes: 000000000100000002000000010000000300000002000000
    m_SmoothingGroup: 0
    m_Uv:
      m_UseWorldSpace: 0
      m_FlipU: 0
      m_FlipV: 0
      m_SwapUV: 0
      m_Fill: 1
      m_Scale: {x: 1, y: 1}
      m_Offset: {x: 0, y: 0}
      m_Rotation: 0
      m_Anchor: 9
    m_Material: {fileID: 0}
    m_SubmeshIndex: 0
    m_ManualUV: 0
    elementGroup: -1
    m_TextureGroup: -1
  - m_Indexes: 040000000500000006000000050000000700000006000000
    m_SmoothingGroup: 0
    m_Uv:
      m_UseWorldSpace: 0
      m_FlipU: 0
      m_FlipV: 0
      m_SwapUV: 0
      m_Fill: 1
      m_Scale: {x: 1, y: 1}
      m_Offset: {x: 0, y: 0}
      m_Rotation: 0
      m_Anchor: 9
    m_Material: {fileID: 0}
    m_SubmeshIndex: 0
    m_ManualUV: 0
    elementGroup: -1
    m_TextureGroup: -1
  - m_Indexes: 08000000090000000a000000090000000b0000000a000000
    m_SmoothingGroup: 0
    m_Uv:
      m_UseWorldSpace: 0
      m_FlipU: 0
      m_FlipV: 0
      m_SwapUV: 0
      m_Fill: 1
      m_Scale: {x: 1, y: 1}
      m_Offset: {x: 0, y: 0}
      m_Rotation: 0
      m_Anchor: 9
    m_Material: {fileID: 0}
    m_SubmeshIndex: 0
    m_ManualUV: 0
    elementGroup: -1
    m_TextureGroup: -1
  - m_Indexes: 0c0000000d0000000e0000000d0000000f0000000e000000
    m_SmoothingGroup: 0
    m_Uv:
      m_UseWorldSpace: 0
      m_FlipU: 0
      m_FlipV: 0
      m_SwapUV: 0
      m_Fill: 1
      m_Scale: {x: 1, y: 1}
      m_Offset: {x: 0, y: 0}
      m_Rotation: 0
      m_Anchor: 9
    m_Material: {fileID: 0}
    m_SubmeshIndex: 0
    m_ManualUV: 0
    elementGroup: -1
    m_TextureGroup: -1
  - m_Indexes: 100000001100000012000000110000001300000012000000
    m_SmoothingGroup: 0
    m_Uv:
      m_UseWorldSpace: 0
      m_FlipU: 0
      m_FlipV: 0
      m_SwapUV: 0
      m_Fill: 1
      m_Scale: {x: 1, y: 1}
      m_Offset: {x: 0, y: 0}
      m_Rotation: 0
      m_Anchor: 9
    m_Material: {fileID: 0}
    m_SubmeshIndex: 0
    m_ManualUV: 0
    elementGroup: -1
    m_TextureGroup: -1
  - m_Indexes: 140000001500000016000000150000001700000016000000
    m_SmoothingGroup: 0
    m_Uv:
      m_UseWorldSpace: 0
      m_FlipU: 0
      m_FlipV: 0
      m_SwapUV: 0
      m_Fill: 1
      m_Scale: {x: 1, y: 1}
      m_Offset: {x: 0, y: 0}
      m_Rotation: 0
      m_Anchor: 9
    m_Material: {fileID: 0}
    m_SubmeshIndex: 0
    m_ManualUV: 0
    elementGroup: -1
    m_TextureGroup: -1
  - m_Indexes: 18000000190000001a000000190000001b0000001a000000
    m_SmoothingGroup: 0
    m_Uv:
      m_UseWorldSpace: 0
      m_FlipU: 0
      m_FlipV: 0
      m_SwapUV: 0
      m_Fill: 1
      m_Scale: {x: 1, y: 1}
      m_Offset: {x: 0, y: 0}
      m_Rotation: 0
      m_Anchor: 9
    m_Material: {fileID: 0}
    m_SubmeshIndex: 0
    m_ManualUV: 0
    elementGroup: -1
    m_TextureGroup: -1
  - m_Indexes: 1c0000001d0000001e0000001d0000001f0000001e000000
    m_SmoothingGroup: 0
    m_Uv:
      m_UseWorldSpace: 0
      m_FlipU: 0
      m_FlipV: 0
      m_SwapUV: 0
      m_Fill: 1
      m_Scale: {x: 1, y: 1}
      m_Offset: {x: 0, y: 0}
      m_Rotation: 0
      m_Anchor: 9
    m_Material: {fileID: 0}
    m_SubmeshIndex: 0
    m_ManualUV: 0
    elementGroup: -1
    m_TextureGroup: -1
  - m_Indexes: 200000002100000022000000210000002300000022000000
    m_SmoothingGroup: 0
    m_Uv:
      m_UseWorldSpace: 0
      m_FlipU: 0
      m_FlipV: 0
      m_SwapUV: 0
      m_Fill: 1
      m_Scale: {x: 1, y: 1}
      m_Offset: {x: 0, y: 0}
      m_Rotation: 0
      m_Anchor: 9
    m_Material: {fileID: 0}
    m_SubmeshIndex: 0
    m_ManualUV: 0
    elementGroup: -1
    m_TextureGroup: -1
  - m_Indexes: 240000002500000026000000250000002700000026000000
    m_SmoothingGroup: 0
    m_Uv:
      m_UseWorldSpace: 0
      m_FlipU: 0
      m_FlipV: 0
      m_SwapUV: 0
      m_Fill: 1
      m_Scale: {x: 1, y: 1}
      m_Offset: {x: 0, y: 0}
      m_Rotation: 0
      m_Anchor: 9
    m_Material: {fileID: 0}
    m_SubmeshIndex: 0
    m_ManualUV: 0
    elementGroup: -1
    m_TextureGroup: -1
  - m_Indexes: 28000000290000002a000000290000002b0000002a000000
    m_SmoothingGroup: 0
    m_Uv:
      m_UseWorldSpace: 0
      m_FlipU: 0
      m_FlipV: 0
      m_SwapUV: 0
      m_Fill: 1
      m_Scale: {x: 1, y: 1}
      m_Offset: {x: 0, y: 0}
      m_Rotation: 0
      m_Anchor: 9
    m_Material: {fileID: 0}
    m_SubmeshIndex: 0
    m_ManualUV: 0
    elementGroup: -1
    m_TextureGroup: -1
  - m_Indexes: 2c0000002d0000002e0000002d0000002f0000002e000000
    m_SmoothingGroup: 0
    m_Uv:
      m_UseWorldSpace: 0
      m_FlipU: 0
      m_FlipV: 0
      m_SwapUV: 0
      m_Fill: 1
      m_Scale: {x: 1, y: 1}
      m_Offset: {x: 0, y: 0}
      m_Rotation: 0
      m_Anchor: 9
    m_Material: {fileID: 0}
    m_SubmeshIndex: 0
    m_ManualUV: 0
    elementGroup: -1
    m_TextureGroup: -1
  - m_Indexes: 300000003100000032000000310000003300000032000000
    m_SmoothingGroup: 0
    m_Uv:
      m_UseWorldSpace: 0
      m_FlipU: 0
      m_FlipV: 0
      m_SwapUV: 0
      m_Fill: 1
      m_Scale: {x: 1, y: 1}
      m_Offset: {x: 0, y: 0}
      m_Rotation: 0
      m_Anchor: 9
    m_Material: {fileID: 0}
    m_SubmeshIndex: 0
    m_ManualUV: 0
    elementGroup: -1
    m_TextureGroup: -1
  - m_Indexes: 340000003500000036000000350000003700000036000000
    m_SmoothingGroup: 0
    m_Uv:
      m_UseWorldSpace: 0
      m_FlipU: 0
      m_FlipV: 0
      m_SwapUV: 0
      m_Fill: 1
      m_Scale: {x: 1, y: 1}
      m_Offset: {x: 0, y: 0}
      m_Rotation: 0
      m_Anchor: 9
    m_Material: {fileID: 0}
    m_SubmeshIndex: 0
    m_ManualUV: 0
    elementGroup: -1
    m_TextureGroup: -1
  - m_Indexes: 38000000390000003a000000390000003b0000003a000000
    m_SmoothingGroup: 0
    m_Uv:
      m_UseWorldSpace: 0
      m_FlipU: 0
      m_FlipV: 0
      m_SwapUV: 0
      m_Fill: 1
      m_Scale: {x: 1, y: 1}
      m_Offset: {x: 0, y: 0}
      m_Rotation: 0
      m_Anchor: 9
    m_Material: {fileID: 0}
    m_SubmeshIndex: 0
    m_ManualUV: 0
    elementGroup: -1
    m_TextureGroup: -1
  - m_Indexes: 3c0000003d0000003e0000003d0000003f0000003e000000
    m_SmoothingGroup: 0
    m_Uv:
      m_UseWorldSpace: 0
      m_FlipU: 0
      m_FlipV: 0
      m_SwapUV: 0
      m_Fill: 1
      m_Scale: {x: 1, y: 1}
      m_Offset: {x: 0, y: 0}
      m_Rotation: 0
      m_Anchor: 9
    m_Material: {fileID: 0}
    m_SubmeshIndex: 0
    m_ManualUV: 0
    elementGroup: -1
    m_TextureGroup: -1
  - m_Indexes: 400000004100000042000000410000004300000042000000
    m_SmoothingGroup: 0
    m_Uv:
      m_UseWorldSpace: 0
      m_FlipU: 0
      m_FlipV: 0
      m_SwapUV: 0
      m_Fill: 1
      m_Scale: {x: 1, y: 1}
      m_Offset: {x: 0, y: 0}
      m_Rotation: 0
      m_Anchor: 9
    m_Material: {fileID: 0}
    m_SubmeshIndex: 0
    m_ManualUV: 0
    elementGroup: -1
    m_TextureGroup: -1
  - m_Indexes: 440000004500000046000000450000004700000046000000
    m_SmoothingGroup: 0
    m_Uv:
      m_UseWorldSpace: 0
      m_FlipU: 0
      m_FlipV: 0
      m_SwapUV: 0
      m_Fill: 1
      m_Scale: {x: 1, y: 1}
      m_Offset: {x: 0, y: 0}
      m_Rotation: 0
      m_Anchor: 9
    m_Material: {fileID: 0}
    m_SubmeshIndex: 0
    m_ManualUV: 0
    elementGroup: -1
    m_TextureGroup: -1
  - m_Indexes: 48000000490000004a000000490000004b0000004a000000
    m_SmoothingGroup: 0
    m_Uv:
      m_UseWorldSpace: 0
      m_FlipU: 0
      m_FlipV: 0
      m_SwapUV: 0
      m_Fill: 1
      m_Scale: {x: 1, y: 1}
      m_Offset: {x: 0, y: 0}
      m_Rotation: 0
      m_Anchor: 9
    m_Material: {fileID: 0}
    m_SubmeshIndex: 0
    m_ManualUV: 0
    elementGroup: -1
    m_TextureGroup: -1
  - m_Indexes: 4c0000004d0000004e0000004d0000004f0000004e000000
    m_SmoothingGroup: 0
    m_Uv:
      m_UseWorldSpace: 0
      m_FlipU: 0
      m_FlipV: 0
      m_SwapUV: 0
      m_Fill: 1
      m_Scale: {x: 1, y: 1}
      m_Offset: {x: 0, y: 0}
      m_Rotation: 0
      m_Anchor: 9
    m_Material: {fileID: 0}
    m_SubmeshIndex: 0
    m_ManualUV: 0
    elementGroup: -1
    m_TextureGroup: -1
  - m_Indexes: 500000005100000052000000510000005300000052000000
    m_SmoothingGroup: 0
    m_Uv:
      m_UseWorldSpace: 0
      m_FlipU: 0
      m_FlipV: 0
      m_SwapUV: 0
      m_Fill: 1
      m_Scale: {x: 1, y: 1}
      m_Offset: {x: 0, y: 0}
      m_Rotation: 0
      m_Anchor: 9
    m_Material: {fileID: 0}
    m_SubmeshIndex: 0
    m_ManualUV: 0
    elementGroup: -1
    m_TextureGroup: -1
  - m_Indexes: 540000005500000056000000550000005700000056000000
    m_SmoothingGroup: 0
    m_Uv:
      m_UseWorldSpace: 0
      m_FlipU: 0
      m_FlipV: 0
      m_SwapUV: 0
      m_Fill: 1
      m_Scale: {x: 1, y: 1}
      m_Offset: {x: 0, y: 0}
      m_Rotation: 0
      m_Anchor: 9
    m_Material: {fileID: 0}
    m_SubmeshIndex: 0
    m_ManualUV: 0
    elementGroup: -1
    m_TextureGroup: -1
  - m_Indexes: 58000000590000005a000000590000005b0000005a000000
    m_SmoothingGroup: 0
    m_Uv:
      m_UseWorldSpace: 0
      m_FlipU: 0
      m_FlipV: 0
      m_SwapUV: 0
      m_Fill: 1
      m_Scale: {x: 1, y: 1}
      m_Offset: {x: 0, y: 0}
      m_Rotation: 0
      m_Anchor: 9
    m_Material: {fileID: 0}
    m_SubmeshIndex: 0
    m_ManualUV: 0
    elementGroup: -1
    m_TextureGroup: -1
  - m_Indexes: 5c0000005d0000005e0000005d0000005f0000005e000000
    m_SmoothingGroup: 0
    m_Uv:
      m_UseWorldSpace: 0
      m_FlipU: 0
      m_FlipV: 0
      m_SwapUV: 0
      m_Fill: 1
      m_Scale: {x: 1, y: 1}
      m_Offset: {x: 0, y: 0}
      m_Rotation: 0
      m_Anchor: 9
    m_Material: {fileID: 0}
    m_SubmeshIndex: 0
    m_ManualUV: 0
    elementGroup: -1
    m_TextureGroup: -1
  m_SharedVertices:
  - m_Vertices: 00000000090000003100000038000000
  - m_Vertices: 01000000280000003000000059000000
  - m_Vertices: 020000000b000000340000003d000000
  - m_Vertices: 030000002a000000350000005c000000
  - m_Vertices: 040000002d000000320000005b000000
  - m_Vertices: 050000000c000000330000003a000000
  - m_Vertices: 060000002f000000370000005e000000
  - m_Vertices: 070000000e000000360000003f000000
  - m_Vertices: 08000000110000003900000040000000
  - m_Vertices: 0a000000130000003c00000045000000
  - m_Vertices: 0d000000140000003b00000042000000
  - m_Vertices: 0f000000160000003e00000047000000
  - m_Vertices: 10000000190000004100000048000000
  - m_Vertices: 120000001b000000440000004d000000
  - m_Vertices: 150000001c000000430000004a000000
  - m_Vertices: 170000001e000000460000004f000000
  - m_Vertices: 18000000210000004900000050000000
  - m_Vertices: 1a000000230000004c00000055000000
  - m_Vertices: 1d000000240000004b00000052000000
  - m_Vertices: 1f000000260000004e00000057000000
  - m_Vertices: 20000000290000005100000058000000
  - m_Vertices: 220000002b000000540000005d000000
  - m_Vertices: 250000002c000000530000005a000000
  - m_Vertices: 270000002e000000560000005f000000
  m_SharedTextures: []
  m_Positions:
  - {x: -0.20500001, y: 0, z: 0.35507044}
  - {x: 0, y: 0, z: 0}
  - {x: -0.20500001, y: 0.82, z: 0.35507044}
  - {x: 0, y: 0.82, z: 0}
  - {x: -0.2, y: 0, z: 0}
  - {x: -0.305, y: 0, z: 0.18186533}
  - {x: -0.2, y: 0.82, z: 0}
  - {x: -0.305, y: 0.82, z: 0.18186533}
  - {x: -0.615, y: 0, z: 0.3550704}
  - {x: -0.20500001, y: 0, z: 0.35507044}
  - {x: -0.615, y: 0.82, z: 0.3550704}
  - {x: -0.20500001, y: 0.82, z: 0.35507044}
  - {x: -0.305, y: 0, z: 0.18186533}
  - {x: -0.515, y: 0, z: 0.18186532}
  - {x: -0.305, y: 0.82, z: 0.18186533}
  - {x: -0.515, y: 0.82, z: 0.18186532}
  - {x: -0.82, y: 0, z: -0.00000003584334}
  - {x: -0.615, y: 0, z: 0.3550704}
  - {x: -0.82, y: 0.82, z: -0.00000003584334}
  - {x: -0.615, y: 0.82, z: 0.3550704}
  - {x: -0.515, y: 0, z: 0.18186532}
  - {x: -0.62, y: 0, z: -0.000000018358783}
  - {x: -0.515, y: 0.82, z: 0.18186532}
  - {x: -0.62, y: 0.82, z: -0.000000018358783}
  - {x: -0.61499995, y: 0, z: -0.35507044}
  - {x: -0.82, y: 0, z: -0.00000003584334}
  - {x: -0.61499995, y: 0.82, z: -0.35507044}
  - {x: -0.82, y: 0.82, z: -0.00000003584334}
  - {x: -0.62, y: 0, z: -0.000000018358783}
  - {x: -0.515, y: 0, z: -0.18186533}
  - {x: -0.62, y: 0.82, z: -0.000000018358783}
  - {x: -0.515, y: 0.82, z: -0.18186533}
  - {x: -0.20500003, y: 0, z: -0.35507044}
  - {x: -0.61499995, y: 0, z: -0.35507044}
  - {x: -0.20500003, y: 0.82, z: -0.35507044}
  - {x: -0.61499995, y: 0.82, z: -0.35507044}
  - {x: -0.515, y: 0, z: -0.18186533}
  - {x: -0.305, y: 0, z: -0.18186533}
  - {x: -0.515, y: 0.82, z: -0.18186533}
  - {x: -0.305, y: 0.82, z: -0.18186533}
  - {x: 0, y: 0, z: 0}
  - {x: -0.20500003, y: 0, z: -0.35507044}
  - {x: 0, y: 0.82, z: 0}
  - {x: -0.20500003, y: 0.82, z: -0.35507044}
  - {x: -0.305, y: 0, z: -0.18186533}
  - {x: -0.2, y: 0, z: 0}
  - {x: -0.305, y: 0.82, z: -0.18186533}
  - {x: -0.2, y: 0.82, z: 0}
  - {x: 0, y: 0, z: 0}
  - {x: -0.20500001, y: 0, z: 0.35507044}
  - {x: -0.2, y: 0, z: 0}
  - {x: -0.305, y: 0, z: 0.18186533}
  - {x: -0.20500001, y: 0.82, z: 0.35507044}
  - {x: 0, y: 0.82, z: 0}
  - {x: -0.305, y: 0.82, z: 0.18186533}
  - {x: -0.2, y: 0.82, z: 0}
  - {x: -0.20500001, y: 0, z: 0.35507044}
  - {x: -0.615, y: 0, z: 0.3550704}
  - {x: -0.305, y: 0, z: 0.18186533}
  - {x: -0.515, y: 0, z: 0.18186532}
  - {x: -0.615, y: 0.82, z: 0.3550704}
  - {x: -0.20500001, y: 0.82, z: 0.35507044}
  - {x: -0.515, y: 0.82, z: 0.18186532}
  - {x: -0.305, y: 0.82, z: 0.18186533}
  - {x: -0.615, y: 0, z: 0.3550704}
  - {x: -0.82, y: 0, z: -0.00000003584334}
  - {x: -0.515, y: 0, z: 0.18186532}
  - {x: -0.62, y: 0, z: -0.000000018358783}
  - {x: -0.82, y: 0.82, z: -0.00000003584334}
  - {x: -0.615, y: 0.82, z: 0.3550704}
  - {x: -0.62, y: 0.82, z: -0.000000018358783}
  - {x: -0.515, y: 0.82, z: 0.18186532}
  - {x: -0.82, y: 0, z: -0.00000003584334}
  - {x: -0.61499995, y: 0, z: -0.35507044}
  - {x: -0.62, y: 0, z: -0.000000018358783}
  - {x: -0.515, y: 0, z: -0.18186533}
  - {x: -0.61499995, y: 0.82, z: -0.35507044}
  - {x: -0.82, y: 0.82, z: -0.00000003584334}
  - {x: -0.515, y: 0.82, z: -0.18186533}
  - {x: -0.62, y: 0.82, z: -0.000000018358783}
  - {x: -0.61499995, y: 0, z: -0.35507044}
  - {x: -0.20500003, y: 0, z: -0.35507044}
  - {x: -0.515, y: 0, z: -0.18186533}
  - {x: -0.305, y: 0, z: -0.18186533}
  - {x: -0.20500003, y: 0.82, z: -0.35507044}
  - {x: -0.61499995, y: 0.82, z: -0.35507044}
  - {x: -0.305, y: 0.82, z: -0.18186533}
  - {x: -0.515, y: 0.82, z: -0.18186533}
  - {x: -0.20500003, y: 0, z: -0.35507044}
  - {x: 0, y: 0, z: 0}
  - {x: -0.305, y: 0, z: -0.18186533}
  - {x: -0.2, y: 0, z: 0}
  - {x: 0, y: 0.82, z: 0}
  - {x: -0.20500003, y: 0.82, z: -0.35507044}
  - {x: -0.2, y: 0.82, z: 0}
  - {x: -0.305, y: 0.82, z: -0.18186533}
  m_Textures0:
  - {x: 0.41000003, y: 0}
  - {x: 0, y: 0}
  - {x: 0.41000003, y: 0.82}
  - {x: 0, y: 0.82}
  - {x: -0.10000002, y: 0}
  - {x: -0.31000003, y: 0}
  - {x: -0.10000002, y: 0.82}
  - {x: -0.31000003, y: 0.82}
  - {x: 0.615, y: 0}
  - {x: 0.20499998, y: 0}
  - {x: 0.615, y: 0.82}
  - {x: 0.20499998, y: 0.82}
  - {x: -0.305, y: 0}
  - {x: -0.515, y: 0}
  - {x: -0.305, y: 0.82}
  - {x: -0.515, y: 0.82}
  - {x: 0.41, y: 0}
  - {x: -0.000000026266697, y: 0}
  - {x: 0.41, y: 0.82}
  - {x: -0.000000026266697, y: 0.82}
  - {x: -0.10000004, y: 0}
  - {x: -0.31000006, y: 0}
  - {x: -0.10000004, y: 0.82}
  - {x: -0.31000006, y: 0.82}
  - {x: -0.000000030927396, y: 0}
  - {x: -0.41000006, y: 0}
  - {x: -0.000000030927396, y: 0.82}
  - {x: -0.41000006, y: 0.82}
  - {x: 0.31000006, y: 0}
  - {x: 0.10000005, y: 0}
  - {x: 0.31000006, y: 0.82}
  - {x: 0.10000005, y: 0.82}
  - {x: -0.20500003, y: 0}
  - {x: -0.61499995, y: 0}
  - {x: -0.20500003, y: 0.82}
  - {x: -0.61499995, y: 0.82}
  - {x: 0.515, y: 0}
  - {x: 0.305, y: 0}
  - {x: 0.515, y: 0.82}
  - {x: 0.305, y: 0.82}
  - {x: 0, y: 0}
  - {x: -0.41000003, y: 0}
  - {x: 0, y: 0.82}
  - {x: -0.41000003, y: 0.82}
  - {x: 0.31000003, y: 0}
  - {x: 0.10000002, y: 0}
  - {x: 0.31000003, y: 0.82}
  - {x: 0.10000002, y: 0.82}
  - {x: 0, y: 0}
  - {x: 0.20500001, y: 0.35507044}
  - {x: 0.2, y: 0}
  - {x: 0.305, y: 0.18186533}
  - {x: -0.20500001, y: 0.35507044}
  - {x: 0, y: 0}
  - {x: -0.305, y: 0.18186533}
  - {x: -0.2, y: 0}
  - {x: 0.20500001, y: 0.35507044}
  - {x: 0.615, y: 0.3550704}
  - {x: 0.305, y: 0.18186533}
  - {x: 0.515, y: 0.18186532}
  - {x: -0.615, y: 0.3550704}
  - {x: -0.20500001, y: 0.35507044}
  - {x: -0.515, y: 0.18186532}
  - {x: -0.305, y: 0.18186533}
  - {x: 0.615, y: 0.3550704}
  - {x: 0.82, y: -0.00000003584334}
  - {x: 0.515, y: 0.18186532}
  - {x: 0.62, y: -0.000000018358783}
  - {x: -0.82, y: -0.00000003584334}
  - {x: -0.615, y: 0.3550704}
  - {x: -0.62, y: -0.000000018358783}
  - {x: -0.515, y: 0.18186532}
  - {x: 0.82, y: -0.00000003584334}
  - {x: 0.61499995, y: -0.35507044}
  - {x: 0.62, y: -0.000000018358783}
  - {x: 0.515, y: -0.18186533}
  - {x: -0.61499995, y: -0.35507044}
  - {x: -0.82, y: -0.00000003584334}
  - {x: -0.515, y: -0.18186533}
  - {x: -0.62, y: -0.000000018358783}
  - {x: 0.61499995, y: -0.35507044}
  - {x: 0.20500003, y: -0.35507044}
  - {x: 0.515, y: -0.18186533}
  - {x: 0.305, y: -0.18186533}
  - {x: -0.20500003, y: -0.35507044}
  - {x: -0.61499995, y: -0.35507044}
  - {x: -0.305, y: -0.18186533}
  - {x: -0.515, y: -0.18186533}
  - {x: 0.20500003, y: -0.35507044}
  - {x: 0, y: 0}
  - {x: 0.305, y: -0.18186533}
  - {x: 0.2, y: 0}
  - {x: 0, y: 0}
  - {x: -0.20500003, y: -0.35507044}
  - {x: -0.2, y: 0}
  - {x: -0.305, y: -0.18186533}
  m_Textures2: []
  m_Textures3: []
  m_Tangents:
  - {x: -0.5, y: 0, z: 0.8660254, w: -1}
  - {x: -0.5, y: 0, z: 0.8660254, w: -1}
  - {x: -0.5, y: 0, z: 0.8660254, w: -1}
  - {x: -0.5, y: 0, z: 0.8660254, w: -1}
  - {x: 0.5000001, y: 0, z: -0.8660254, w: -1}
  - {x: 0.5000001, y: 0, z: -0.8660254, w: -1}
  - {x: 0.5000001, y: 0, z: -0.8660254, w: -1}
  - {x: 0.5000001, y: 0, z: -0.8660254, w: -1}
  - {x: -1, y: 0, z: -0.00000007268859, w: -1}
  - {x: -1, y: 0, z: -0.00000007268859, w: -1}
  - {x: -1, y: 0, z: -0.00000007268859, w: -1}
  - {x: -1, y: 0, z: -0.00000007268859, w: -1}
  - {x: 1, y: 0, z: 0.00000007095792, w: -1}
  - {x: 1, y: 0, z: 0.00000007095792, w: -1}
  - {x: 1, y: 0, z: 0.00000007095792, w: -1}
  - {x: 1, y: 0, z: 0.00000007095792, w: -1}
  - {x: -0.49999997, y: 0, z: -0.86602545, w: -1}
  - {x: -0.49999997, y: 0, z: -0.86602545, w: -1}
  - {x: -0.49999997, y: 0, z: -0.86602545, w: -1}
  - {x: -0.49999997, y: 0, z: -0.86602545, w: -1}
  - {x: 0.5000001, y: 0, z: 0.8660254, w: -1}
  - {x: 0.5000001, y: 0, z: 0.8660254, w: -1}
  - {x: 0.5000001, y: 0, z: 0.8660254, w: -1}
  - {x: 0.5000001, y: 0, z: 0.8660254, w: -1}
  - {x: 0.5000001, y: 0, z: -0.8660254, w: -1}
  - {x: 0.5000001, y: 0, z: -0.8660254, w: -1}
  - {x: 0.5000001, y: 0, z: -0.8660254, w: -1}
  - {x: 0.5000001, y: 0, z: -0.8660254, w: -1}
  - {x: -0.5000001, y: 0, z: 0.8660254, w: -1}
  - {x: -0.5000001, y: 0, z: 0.8660254, w: -1}
  - {x: -0.5000001, y: 0, z: 0.8660254, w: -1}
  - {x: -0.5000001, y: 0, z: 0.8660254, w: -1}
  - {x: 1, y: 0, z: 0, w: -1}
  - {x: 1, y: 0, z: 0, w: -1}
  - {x: 1, y: 0, z: 0, w: -1}
  - {x: 1, y: 0, z: 0, w: -1}
  - {x: -1, y: 0, z: 0, w: -1}
  - {x: -1, y: 0, z: 0, w: -1}
  - {x: -1, y: 0, z: 0, w: -1}
  - {x: -1, y: 0, z: 0, w: -1}
  - {x: 0.5, y: 0, z: 0.86602545, w: -1}
  - {x: 0.5, y: 0, z: 0.86602545, w: -1}
  - {x: 0.5, y: 0, z: 0.86602545, w: -1}
  - {x: 0.5, y: 0, z: 0.86602545, w: -1}
  - {x: -0.5000001, y: 0, z: -0.8660254, w: -1}
  - {x: -0.5000001, y: 0, z: -0.8660254, w: -1}
  - {x: -0.5000001, y: 0, z: -0.8660254, w: -1}
  - {x: -0.5000001, y: 0, z: -0.8660254, w: -1}
  - {x: -1, y: 0, z: 0, w: -1}
  - {x: -1, y: 0, z: 0, w: -1}
  - {x: -1, y: 0, z: 0, w: -1}
  - {x: -1, y: 0, z: 0, w: -1}
  - {x: 1, y: 0, z: 0, w: -1}
  - {x: 1, y: 0, z: 0, w: -1}
  - {x: 1, y: 0, z: 0, w: -1}
  - {x: 1, y: 0, z: 0, w: -1}
  - {x: -1, y: 0, z: 0, w: -1}
  - {x: -1, y: 0, z: 0, w: -1}
  - {x: -1, y: 0, z: 0, w: -1}
  - {x: -1, y: 0, z: 0, w: -1}
  - {x: 1, y: 0, z: 0, w: -1}
  - {x: 1, y: 0, z: 0, w: -1}
  - {x: 1, y: 0, z: 0, w: -1}
  - {x: 1, y: 0, z: 0, w: -1}
  - {x: -1, y: 0, z: 0, w: -1}
  - {x: -1, y: 0, z: 0, w: -1}
  - {x: -1, y: 0, z: 0, w: -1}
  - {x: -1, y: 0, z: 0, w: -1}
  - {x: 1, y: 0, z: 0, w: -1}
  - {x: 1, y: 0, z: 0, w: -1}
  - {x: 1, y: 0, z: 0, w: -1}
  - {x: 1, y: 0, z: 0, w: -1}
  - {x: -1, y: 0, z: 0, w: -1}
  - {x: -1, y: 0, z: 0, w: -1}
  - {x: -1, y: 0, z: 0, w: -1}
  - {x: -1, y: 0, z: 0, w: -1}
  - {x: 1, y: 0, z: 0, w: -1}
  - {x: 1, y: 0, z: 0, w: -1}
  - {x: 1, y: 0, z: 0, w: -1}
  - {x: 1, y: 0, z: 0, w: -1}
  - {x: -1, y: 0, z: 0, w: -1}
  - {x: -1, y: 0, z: 0, w: -1}
  - {x: -1, y: 0, z: 0, w: -1}
  - {x: -1, y: 0, z: 0, w: -1}
  - {x: 1, y: 0, z: 0, w: -1}
  - {x: 1, y: 0, z: 0, w: -1}
  - {x: 1, y: 0, z: 0, w: -1}
  - {x: 1, y: 0, z: 0, w: -1}
  - {x: -1, y: 0, z: 0, w: -1}
  - {x: -1, y: 0, z: 0, w: -1}
  - {x: -1, y: 0, z: 0, w: -1}
  - {x: -1, y: 0, z: 0, w: -1}
  - {x: 1, y: 0, z: 0, w: -1}
  - {x: 1, y: 0, z: 0, w: -1}
  - {x: 1, y: 0, z: 0, w: -1}
  - {x: 1, y: 0, z: 0, w: -1}
  m_Colors: []
  m_UnwrapParameters:
    m_HardAngle: 88
    m_PackMargin: 20
    m_AngleError: 8
    m_AreaError: 15
  m_PreserveMeshAssetOnDestroy: 0
  assetGuid: 
  m_IsSelectable: 1
  m_SelectedFaces: 
  m_SelectedEdges: []
  m_SelectedVertices: 
--- !u!64 &4794427525141915165
MeshCollider:
  m_ObjectHideFlags: 0
  m_CorrespondingSourceObject: {fileID: 0}
  m_PrefabInstance: {fileID: 0}
  m_PrefabAsset: {fileID: 0}
  m_GameObject: {fileID: 4523719455169754246}
  m_Material: {fileID: 0}
  m_IsTrigger: 0
  m_Enabled: 1
  serializedVersion: 4
  m_Convex: 0
  m_CookingOptions: 30
  m_Mesh: {fileID: 0}
